15:08:51.598 [main] INFO  test - info
15:08:51.598 [main] WARN  test - warn
15:08:51.598 [main] ERROR test - error
15:08:51.598 [main] FATAL test - fatal
15:08:51.598 [main] WARN  Compiler - This is a warning
15:08:51.598 [main] INFO  STDOUT - This is text on stdout!
15:08:51.598 [main] INFO  STDOUT - Windows 10
13:09:59.430 [main] INFO  test - info
13:09:59.431 [main] WARN  test - warn
13:09:59.431 [main] ERROR test - error
13:09:59.431 [main] FATAL test - fatal
13:09:59.432 [main] WARN  Compiler - This is a warning
13:09:59.432 [main] INFO  STDOUT - This is text on stdout!
13:09:59.432 [main] INFO  STDOUT - Linux
15:14:41.605 [main] INFO  test - info
15:14:41.605 [main] WARN  test - warn
15:14:41.605 [main] ERROR test - error
15:14:41.606 [main] FATAL test - fatal
15:14:41.606 [main] WARN  Compiler - This is a warning
15:14:41.606 [main] INFO  STDOUT - This is text on stdout!
15:14:41.606 [main] INFO  STDOUT - Windows 10
15:14:41.606 [main] INFO  STDOUT - Is this windows? Yes
15:14:41.606 [main] INFO  STDOUT - Is this unix? No
13:14:59.933 [main] INFO  test - info
13:14:59.934 [main] WARN  test - warn
13:14:59.934 [main] ERROR test - error
13:14:59.934 [main] FATAL test - fatal
13:14:59.935 [main] WARN  Compiler - This is a warning
13:14:59.935 [main] INFO  STDOUT - This is text on stdout!
13:14:59.936 [main] INFO  STDOUT - Linux
13:14:59.937 [main] INFO  STDOUT - Is this windows? No
13:14:59.937 [main] INFO  STDOUT - Is this unix? Yes
